id,first_name,last_name,email,gender,ip_address
1,Basia,Bounde,bbounde0@timesonline.co.uk,Female,12.212.133.13
2,Winfred,Wilshere,wwilshere1@over-blog.com,Male,55.123.31.2
3,Bee,Sinkings,bsinkings2@amazon.co.jp,Female,47.253.167.111
4,Lorianne,MacSkeaghan,lmacskeaghan3@cbslocal.com,Female,21.215.173.108
5,Elfrida,Jankin,ejankin4@redcross.org,Female,122.166.6.226
6,Vidovik,Ketteridge,vketteridge5@aboutads.info,Male,77.180.224.160
7,Trefor,Dunstan,tdunstan6@cloudflare.com,Male,99.122.140.218
8,Rowen,Daniels,rdaniels7@usnews.com,Male,205.206.213.40
9,Benny,Bortoletti,bbortoletti8@ebay.com,Male,249.51.139.174
10,Germaine,Sage,gsage9@networksolutions.com,Male,232.53.237.242
11,Tymon,Sworne,tswornea@columbia.edu,Male,92.240.188.59
12,Doro,Stoeckle,dstoeckleb@yelp.com,Female,50.25.235.198
13,Camila,Anyene,canyenec@ocn.ne.jp,Female,203.63.30.226
14,Yankee,Bartali,ybartalid@pbs.org,Male,43.34.253.219
15,Anthe,Sinton,asintone@usnews.com,Female,4.161.175.192
16,Kerk,Creelman,kcreelmanf@huffingtonpost.com,Male,101.182.102.21
17,Farly,Harmond,fharmondg@mapquest.com,Male,120.122.67.197
18,Manon,Dolan,mdolanh@spiegel.de,Female,15.238.242.141
19,Eduardo,Hanvey,ehanveyi@trellian.com,Male,88.78.12.150
20,Stacie,Perez,sperezj@auda.org.au,Female,83.110.146.196
21,Celene,Worlock,cworlockk@google.co.jp,Female,38.128.132.246
22,Yovonnda,Gregon,ygregonl@homestead.com,Female,244.189.98.191
23,Jenny,Farmery,jfarmerym@lulu.com,Female,50.56.148.186
24,Edy,Ferriby,eferribyn@comcast.net,Female,69.235.158.83
25,Nickie,Gutman,ngutmano@ucsd.edu,Male,115.9.29.177
26,Calvin,Mouncey,cmounceyp@google.co.jp,Male,24.227.5.5
27,Karlens,Willgrass,kwillgrassq@is.gd,Male,124.184.201.150
28,Marissa,Fahrenbach,mfahrenbachr@devhub.com,Female,115.197.17.19
29,Lotta,Plessing,lplessings@wordpress.org,Female,37.223.7.176
30,Hanny,Izachik,hizachikt@comcast.net,Female,62.1.222.58
31,Moira,Robarts,mrobartsu@example.com,Female,17.218.133.25
32,Lauraine,Gowrich,lgowrichv@samsung.com,Female,24.253.70.251
33,Cathyleen,Jirousek,cjirousekw@paypal.com,Female,8.93.177.55
34,Hurley,Dovidaitis,hdovidaitisx@fastcompany.com,Male,45.212.201.97
35,Rafael,Cloke,rclokey@bloglines.com,Male,25.30.54.211
36,Mickie,Orteu,morteuz@freewebs.com,Female,132.10.154.6
37,Margalo,Loney,mloney10@mapquest.com,Female,253.245.15.180
38,Flo,Aireton,faireton11@mit.edu,Female,184.241.91.61
39,Deena,Justis,djustis12@4shared.com,Female,178.133.102.106
40,Leodora,Miell,lmiell13@businessweek.com,Female,95.117.155.122
41,Maddy,Critchlow,mcritchlow14@google.com.br,Male,103.163.233.143
42,Melisent,Jertz,mjertz15@de.vu,Female,57.253.182.79
43,Marlow,Charters,mcharters16@gravatar.com,Male,159.16.226.94
44,Tedie,Coddington,tcoddington17@cnbc.com,Male,86.92.60.123
45,Esmaria,Pischel,epischel18@tmall.com,Female,232.24.164.40
46,Kurt,Pimley,kpimley19@paypal.com,Male,75.156.151.109
47,Niven,Brownsell,nbrownsell1a@theglobeandmail.com,Male,180.110.101.170
48,Skipton,Lapree,slapree1b@indiegogo.com,Male,116.152.140.68
49,Curr,Hurworth,churworth1c@instagram.com,Male,44.203.194.191
50,Sidoney,Joint,sjoint1d@lulu.com,Female,235.186.126.73
51,Vanna,Chilvers,vchilvers1e@google.com.hk,Female,124.78.79.103
52,Paige,Hawker,phawker1f@cdc.gov,Male,241.12.44.183
53,Cheslie,Hawton,chawton1g@theatlantic.com,Female,22.168.206.61
54,Winonah,Goodee,wgoodee1h@dropbox.com,Female,68.47.139.157
55,Clyde,Drawmer,cdrawmer1i@newsvine.com,Male,213.123.20.250
56,Rebeca,Wilkins,rwilkins1j@nymag.com,Female,235.82.137.22
57,Caryl,Downage,cdownage1k@vkontakte.ru,Male,172.85.10.190
58,Patin,Beacroft,pbeacroft1l@jimdo.com,Male,168.215.181.139
59,Wallie,Stevani,wstevani1m@uol.com.br,Female,106.95.13.66
60,Way,Galvin,wgalvin1n@sciencedirect.com,Male,234.49.194.232
61,Marsh,Paszak,mpaszak1o@usda.gov,Male,229.32.189.213
62,Derron,Unwin,dunwin1p@ustream.tv,Male,90.250.144.155
63,Pincus,Antrum,pantrum1q@telegraph.co.uk,Male,148.167.117.113
64,Virge,Tart,vtart1r@dmoz.org,Male,43.50.193.94
65,Isis,Risby,irisby1s@dyndns.org,Female,210.175.37.123
66,Halimeda,Dalinder,hdalinder1t@shop-pro.jp,Female,183.174.169.94
67,Sally,Proske,sproske1u@barnesandnoble.com,Female,144.194.80.26
68,Tabbie,Snarie,tsnarie1v@squidoo.com,Male,202.19.226.128
69,Johnette,Gregolin,jgregolin1w@cdbaby.com,Female,134.182.211.224
70,Yettie,Glover,yglover1x@prlog.org,Female,51.108.232.30
71,Orson,Hessle,ohessle1y@sun.com,Male,165.2.179.176
72,Jody,Gaspero,jgaspero1z@tinyurl.com,Male,167.209.19.133
73,Maurine,Creser,mcreser20@slate.com,Female,160.60.107.178
74,Dexter,Huertas,dhuertas21@yellowpages.com,Male,32.206.132.171
75,Marielle,O'Dogherty,modogherty22@usa.gov,Female,202.126.5.66
76,Teodora,McComish,tmccomish23@vkontakte.ru,Female,163.115.97.131
77,Robbert,Probin,rprobin24@csmonitor.com,Male,92.207.77.207
78,Nicky,Sandy,nsandy25@tuttocitta.it,Female,148.37.189.31
79,Susanna,Andriuzzi,sandriuzzi26@netvibes.com,Female,241.196.160.64
80,Sigmund,Haggidon,shaggidon27@uol.com.br,Male,212.150.216.57
81,Roxanne,Stannett,rstannett28@engadget.com,Female,92.226.215.37
82,Prissie,Bentham3,pbentham29@slate.com,Female,204.39.27.243
83,Nellie,Dreelan,ndreelan2a@si.edu,Female,77.116.164.57
84,Reginauld,Cottrill,rcottrill2b@tuttocitta.it,Male,81.58.98.197
85,Lorna,McIlheran,lmcilheran2c@xing.com,Female,180.39.110.110
86,Francois,Guinness,fguinness2d@delicious.com,Male,36.59.85.26
87,Deeyn,Forkan,dforkan2e@pinterest.com,Female,110.14.209.160
88,Jelene,Duplock,jduplock2f@smugmug.com,Female,239.152.22.219
89,Hynda,Tedman,htedman2g@miibeian.gov.cn,Female,20.85.133.79
90,Eduard,Schruyers,eschruyers2h@posterous.com,Male,116.80.195.161
91,Ken,Paddingdon,kpaddingdon2i@vinaora.com,Male,22.112.144.98
92,Brunhilde,Maun,bmaun2j@macromedia.com,Female,11.192.24.88
93,Clarice,Polendine,cpolendine2k@fastcompany.com,Female,202.227.184.219
94,Allyce,Giddy,agiddy2l@com.com,Female,88.64.131.124
95,Lexis,MacKereth,lmackereth2m@youku.com,Female,91.155.239.30
96,Denna,Ryam,dryam2n@altervista.org,Female,137.165.19.31
97,Gerta,Spittle,gspittle2o@multiply.com,Female,158.32.144.2
98,Ethelred,Kedward,ekedward2p@amazon.co.uk,Male,104.229.255.115
99,Rog,Andrassy,randrassy2q@spiegel.de,Male,225.71.243.58
100,Tabbi,Durgan,tdurgan2r@icq.com,Female,97.8.127.16
101,Kania,Bareham,kbareham2s@de.vu,Female,180.3.156.76
102,Aldo,Tripp,atripp2t@mashable.com,Male,99.209.250.16
103,Merry,Mielnik,mmielnik2u@harvard.edu,Female,110.199.23.16
104,Lorne,Dibdall,ldibdall2v@fda.gov,Female,80.143.29.188
105,Faun,Jenny,fjenny2w@prweb.com,Female,159.76.181.90
106,Lazar,Armatage,larmatage2x@blog.com,Male,70.253.61.237
107,Maximo,Loughead,mloughead2y@gmpg.org,Male,12.212.150.206
108,Sherry,Staziker,sstaziker2z@cargocollective.com,Female,241.249.19.100
109,Sukey,Pottiphar,spottiphar30@mtv.com,Female,144.221.253.254
110,Kit,Perse,kperse31@themeforest.net,Female,116.203.241.96
111,Dana,Weepers,dweepers32@salon.com,Male,49.87.146.63
112,Tanitansy,Greim,tgreim33@google.fr,Female,250.106.154.76
113,Arny,Markey,amarkey34@slate.com,Male,139.238.129.134
114,Raoul,Goldson,rgoldson35@printfriendly.com,Male,20.128.189.54
115,Holli,Kienle,hkienle36@google.co.uk,Female,238.96.238.64
116,Marney,Melluish,mmelluish37@feedburner.com,Female,251.122.224.16
117,Katerina,Pleuman,kpleuman38@goo.ne.jp,Female,10.250.247.235
118,Tremayne,Butterwick,tbutterwick39@pcworld.com,Male,242.66.253.87
119,Frieda,Redmille,fredmille3a@icq.com,Female,126.68.160.83
120,Waylon,Blaksland,wblaksland3b@ycombinator.com,Male,35.216.203.28
121,Sidney,Foli,sfoli3c@ehow.com,Male,109.221.48.119
122,Mack,Leffek,mleffek3d@twitter.com,Male,92.139.243.85
123,Cullen,Kitchenman,ckitchenman3e@senate.gov,Male,218.32.95.201
124,Granthem,Hakeworth,ghakeworth3f@netlog.com,Male,32.19.68.15
125,Jacques,Taleworth,jtaleworth3g@tinypic.com,Male,30.111.244.54
126,Saleem,McCreery,smccreery3h@dot.gov,Male,64.133.31.23
127,Manuel,Quainton,mquainton3i@cafepress.com,Male,204.46.122.241
128,Dermot,Drache,ddrache3j@sina.com.cn,Male,143.217.203.198
129,Maggie,Flucks,mflucks3k@intel.com,Female,121.147.141.80
130,Louis,Bowery,lbowery3l@mayoclinic.com,Male,141.157.70.164
131,Ernesto,Ryves,eryves3m@jigsy.com,Male,121.155.240.71
132,Mohandas,Chaim,mchaim3n@weebly.com,Male,113.61.28.28
133,Gasper,Zarfati,gzarfati3o@bizjournals.com,Male,193.91.138.100
134,Prudi,Mangeney,pmangeney3p@deviantart.com,Female,129.221.102.113
135,Talia,Heers,theers3q@phpbb.com,Female,43.205.2.213
136,Tobi,Vereker,tvereker3r@pcworld.com,Female,28.67.85.147
137,Susy,Santer,ssanter3s@nature.com,Female,8.46.96.199
138,Ursa,Hasnip,uhasnip3t@seattletimes.com,Female,165.1.110.48
139,Isahella,Albery,ialbery3u@clickbank.net,Female,170.239.152.121
140,Talyah,Merrydew,tmerrydew3v@state.tx.us,Female,172.2.83.47
141,Luis,Inglesfield,linglesfield3w@diigo.com,Male,78.23.30.210
142,Kalle,MacParlan,kmacparlan3x@bluehost.com,Male,224.221.36.127
143,Yovonnda,Darch,ydarch3y@moonfruit.com,Female,119.175.233.166
144,Amie,McGillacoell,amcgillacoell3z@tripod.com,Female,99.153.43.151
145,Keane,Tregea,ktregea40@chicagotribune.com,Male,97.36.181.228
146,Felicle,Thomassen,fthomassen41@google.fr,Female,48.203.141.89
147,Deana,Uccelli,duccelli42@soup.io,Female,99.138.234.130
148,Ely,Spriggin,espriggin43@slashdot.org,Male,157.0.166.233
149,Connie,Zellick,czellick44@ucsd.edu,Male,32.159.57.233
150,Tracie,Starzaker,tstarzaker45@cbslocal.com,Female,24.14.47.67
151,Griffie,Roughan,groughan46@cargocollective.com,Male,38.54.28.223
152,Titos,Rosendorf,trosendorf47@1und1.de,Male,1.177.201.51
153,Greg,Lilbourne,glilbourne48@soundcloud.com,Male,56.37.230.98
154,Paton,Ketcher,pketcher49@rediff.com,Male,97.185.19.36
155,Korie,Trusty,ktrusty4a@tmall.com,Female,64.215.6.232
156,Anny,Gamil,agamil4b@imdb.com,Female,47.167.213.252
157,Lyon,Kenn,lkenn4c@princeton.edu,Male,233.169.195.137
158,Sheridan,Slatten,sslatten4d@home.pl,Male,215.249.150.9
159,Merwyn,Wellbelove,mwellbelove4e@live.com,Male,27.196.108.166
160,Elnore,Blasik,eblasik4f@photobucket.com,Female,113.226.195.73
161,Edmon,Roome,eroome4g@sourceforge.net,Male,166.88.200.71
162,Joaquin,Gartsyde,jgartsyde4h@about.me,Male,104.55.168.188
163,Raff,Westfalen,rwestfalen4i@deliciousdays.com,Male,85.193.129.211
164,Rodolph,Arlow,rarlow4j@marketwatch.com,Male,164.253.208.118
165,Baldwin,Barz,bbarz4k@ebay.com,Male,77.22.201.137
166,Coop,Marion,cmarion4l@amazon.com,Male,46.38.75.160
167,Reta,Bicksteth,rbicksteth4m@free.fr,Female,187.25.229.197
168,Anna,Lidgertwood,alidgertwood4n@drupal.org,Female,209.44.139.141
169,Basilius,Philippsohn,bphilippsohn4o@businesswire.com,Male,157.195.158.3
170,Kayne,McCreery,kmccreery4p@dion.ne.jp,Male,157.186.238.142
171,Suellen,Goslin,sgoslin4q@com.com,Female,205.151.228.42
172,Roxie,Stubbington,rstubbington4r@archive.org,Female,15.134.240.136
173,Kiley,Mettrick,kmettrick4s@wikimedia.org,Male,226.239.180.5
174,Nevile,Marchi,nmarchi4t@sbwire.com,Male,159.53.253.88
175,Bernardo,Phaup,bphaup4u@hubpages.com,Male,88.248.235.27
176,Bertrand,Yuryichev,byuryichev4v@twitter.com,Male,192.216.142.107
177,Hieronymus,Eggle,heggle4w@noaa.gov,Male,39.58.97.237
178,Hope,Verrico,hverrico4x@wikia.com,Female,87.251.121.42
179,Harvey,De Mitri,hdemitri4y@yolasite.com,Male,94.92.151.25
180,Josey,Lukesch,jlukesch4z@boston.com,Female,178.220.92.199
181,Paolo,Adamovitch,padamovitch50@sphinn.com,Male,32.12.185.245
182,Edee,Beeby,ebeeby51@clickbank.net,Female,113.128.204.187
183,Chloette,Philippe,cphilippe52@google.nl,Female,193.254.40.200
184,Herculie,Acres,hacres53@usda.gov,Male,64.206.97.221
185,Kenon,Le Galle,klegalle54@addtoany.com,Male,167.191.55.191
186,Fee,Dighton,fdighton55@ucoz.ru,Male,250.7.205.110
187,Christie,Heatlie,cheatlie56@livejournal.com,Male,30.148.96.204
188,Enrique,Jodkowski,ejodkowski57@mozilla.org,Male,211.16.22.165
189,Hercule,Dehm,hdehm58@woothemes.com,Male,24.11.98.128
190,Stephen,Tuting,stuting59@feedburner.com,Male,25.190.51.174
191,Goddard,Divisek,gdivisek5a@sciencedaily.com,Male,136.228.223.3
192,Cary,McCroary,cmccroary5b@washington.edu,Male,151.22.189.84
193,Rachele,Pickton,rpickton5c@google.fr,Female,179.120.49.137
194,Ruby,Livingstone,rlivingstone5d@mayoclinic.com,Female,95.23.123.149
195,Griffin,Kinner,gkinner5e@gravatar.com,Male,175.114.197.31
196,Dorelia,Kohler,dkohler5f@eepurl.com,Female,109.30.195.21
197,Huberto,Deeprose,hdeeprose5g@symantec.com,Male,4.74.104.249
198,Alvan,Deller,adeller5h@elegantthemes.com,Male,179.4.107.136
199,Levey,Bassom,lbassom5i@t.co,Male,243.4.132.121
200,Peggi,Burchfield,pburchfield5j@cbc.ca,Female,186.230.140.116
201,Constanta,Kornousek,ckornousek5k@archive.org,Female,2.161.128.139
202,Katha,Jaquest,kjaquest5l@feedburner.com,Female,128.248.199.192
203,Barney,Bradie,bbradie5m@youtube.com,Male,43.115.158.12
204,Shandeigh,Mouget,smouget5n@webmd.com,Female,134.138.218.138
205,Dalia,Cranch,dcranch5o@mashable.com,Female,189.95.248.32
206,Romeo,Loins,rloins5p@example.com,Male,183.170.211.63
207,Vite,Desborough,vdesborough5q@netscape.com,Male,73.15.59.102
208,Torie,Di Roberto,tdiroberto5r@hugedomains.com,Female,61.197.144.78
209,Ingelbert,Bellefonte,ibellefonte5s@prlog.org,Male,98.187.43.255
210,Lacie,Simmen,lsimmen5t@slashdot.org,Female,249.164.130.180
211,Brande,Klazenga,bklazenga5u@acquirethisname.com,Female,139.83.13.147
212,Susanna,Margetts,smargetts5v@cloudflare.com,Female,131.183.164.134
213,Brenn,Lewinton,blewinton5w@ed.gov,Female,97.76.59.9
214,Nicko,Fardo,nfardo5x@oracle.com,Male,88.150.84.133
215,Estele,Wivell,ewivell5y@slideshare.net,Female,198.111.235.245
216,Karoly,Renshell,krenshell5z@behance.net,Female,83.169.234.32
217,Trudi,Hannigane,thannigane60@cam.ac.uk,Female,222.84.48.217
218,Tadd,Harsum,tharsum61@nationalgeographic.com,Male,109.245.199.160
219,Siusan,Cullity,scullity62@w3.org,Female,178.186.179.236
220,Dorey,Bollom,dbollom63@paypal.com,Male,120.105.211.9
221,Jeffie,Moreno,jmoreno64@techcrunch.com,Male,236.102.19.154
222,Loree,Maddaford,lmaddaford65@free.fr,Female,8.17.119.184
223,Jehu,Toll,jtoll66@guardian.co.uk,Male,169.1.173.32
224,Vannie,Dinsmore,vdinsmore67@shop-pro.jp,Female,228.49.56.144
225,Allayne,Duffyn,aduffyn68@github.com,Male,223.119.228.87
226,Buddie,Haymes,bhaymes69@free.fr,Male,85.48.34.135
227,Jo,Burland,jburland6a@washingtonpost.com,Male,213.255.238.155
228,Coreen,Roth,croth6b@fema.gov,Female,13.27.38.209
229,Moselle,Kempson,mkempson6c@cbslocal.com,Female,254.90.251.186
230,Land,Brannon,lbrannon6d@instagram.com,Male,72.141.1.147
231,Arlette,Kealy,akealy6e@chronoengine.com,Female,162.145.159.16
232,Micaela,Rodger,mrodger6f@typepad.com,Female,185.133.190.136
233,Ada,Parbrook,aparbrook6g@fema.gov,Female,190.234.145.250
234,Jonathan,Fayer,jfayer6h@usatoday.com,Male,95.150.87.236
235,Frasquito,Finding,ffinding6i@github.com,Male,91.212.252.96
236,Maxwell,Tibald,mtibald6j@flickr.com,Male,65.115.255.150
237,Way,Millsom,wmillsom6k@wikimedia.org,Male,126.141.151.93
238,Fern,Daingerfield,fdaingerfield6l@mit.edu,Female,92.104.62.225
239,Fawnia,Melendez,fmelendez6m@smh.com.au,Female,208.141.182.113
240,Denys,Tulley,dtulley6n@dmoz.org,Male,226.34.194.83
241,Rossy,Brewitt,rbrewitt6o@biblegateway.com,Male,219.247.102.198
242,Orella,O'Garmen,oogarmen6p@etsy.com,Female,194.151.235.101
243,Rupert,Syphas,rsyphas6q@cnn.com,Male,93.21.140.234
244,Forest,Symers,fsymers6r@yelp.com,Male,16.118.255.126
245,Allina,Prophet,aprophet6s@wordpress.com,Female,132.235.35.63
246,Collin,Spurdon,cspurdon6t@bbb.org,Male,149.171.48.105
247,Everett,Slorance,eslorance6u@kickstarter.com,Male,191.10.253.21
248,Denver,Lavin,dlavin6v@t-online.de,Male,21.24.181.43
249,Meridith,Kollatsch,mkollatsch6w@goodreads.com,Female,129.249.153.88
250,Janith,Fishpool,jfishpool6x@ezinearticles.com,Female,155.203.161.208
251,Lianne,Dungay,ldungay6y@godaddy.com,Female,100.188.150.193
252,Giles,McKeaney,gmckeaney6z@diigo.com,Male,196.246.6.23
253,Lammond,Millership,lmillership70@techcrunch.com,Male,84.6.193.35
254,Courtnay,McSporrin,cmcsporrin71@techcrunch.com,Male,174.17.46.244
255,Danna,Cuttell,dcuttell72@gov.uk,Female,205.127.111.208
256,Conn,Wanell,cwanell73@tinypic.com,Male,102.195.66.228
257,Siana,Pennicard,spennicard74@accuweather.com,Female,161.178.112.201
258,Gwenny,Fevier,gfevier75@cam.ac.uk,Female,81.179.213.4
259,Tomasine,Pinfold,tpinfold76@github.com,Female,38.98.157.229
260,Merola,Seppey,mseppey77@istockphoto.com,Female,205.188.166.110
261,Garnet,Voas,gvoas78@fema.gov,Female,83.177.54.207
262,Shel,Python,spython79@digg.com,Female,149.182.77.116
263,Danni,Klewer,dklewer7a@scientificamerican.com,Female,176.46.23.66
264,Monte,Vasentsov,mvasentsov7b@icio.us,Male,155.216.169.107
265,Velvet,Lightbourn,vlightbourn7c@zimbio.com,Female,150.40.29.37
266,Garwin,Iwanicki,giwanicki7d@shareasale.com,Male,183.119.172.219
267,Ode,Donohue,odonohue7e@springer.com,Male,54.219.191.185
268,Inger,Bissell,ibissell7f@jugem.jp,Male,196.115.166.225
269,Tore,Bernollet,tbernollet7g@blog.com,Male,122.63.210.218
270,Oralee,Glavis,oglavis7h@sakura.ne.jp,Female,4.105.153.57
271,Kippie,Edgler,kedgler7i@pagesperso-orange.fr,Male,38.89.69.24
272,Nikolas,Dragoe,ndragoe7j@cam.ac.uk,Male,124.171.12.8
273,Tandi,Schroeder,tschroeder7k@sourceforge.net,Female,96.215.209.229
274,Julienne,Cheeld,jcheeld7l@weibo.com,Female,168.162.183.91
275,Marianne,Wharram,mwharram7m@google.com.au,Female,152.87.66.44
276,Guthrey,Ciciari,gciciari7n@webmd.com,Male,201.75.229.40
277,Darnall,Holde,dholde7o@jigsy.com,Male,245.119.54.161
278,Marco,Howey,mhowey7p@ovh.net,Male,143.175.143.44
279,Paquito,Hainning,phainning7q@wikia.com,Male,124.201.80.157
280,Gaile,Whatson,gwhatson7r@wikimedia.org,Male,244.232.120.143
281,Dalston,Scutt,dscutt7s@xinhuanet.com,Male,210.203.59.176
282,Ebeneser,Emberton,eemberton7t@oaic.gov.au,Male,93.150.67.26
283,Kittie,Davitashvili,kdavitashvili7u@mediafire.com,Female,70.225.118.232
284,Clara,Towl,ctowl7v@yale.edu,Female,203.249.29.240
285,Gae,Redfield,gredfield7w@themeforest.net,Female,50.66.94.248
286,See,Utley,sutley7x@photobucket.com,Male,164.168.63.115
287,Reggy,Kiggel,rkiggel7y@rambler.ru,Male,103.183.120.230
288,Kesley,Wildes,kwildes7z@huffingtonpost.com,Female,30.178.101.93
289,Genovera,Carlow,gcarlow80@seesaa.net,Female,46.190.232.2
290,Kaiser,Syddie,ksyddie81@free.fr,Male,189.21.136.124
291,Daffy,Fronzek,dfronzek82@tinyurl.com,Female,25.111.93.16
292,Janith,Haddy,jhaddy83@1und1.de,Female,111.173.75.152
293,Kalle,Pipkin,kpipkin84@wisc.edu,Male,90.129.67.208
294,Chloe,Pendreigh,cpendreigh85@dedecms.com,Female,19.58.237.241
295,Chan,Clemmens,cclemmens86@nasa.gov,Male,75.96.88.174
296,Whitman,Slimmon,wslimmon87@dion.ne.jp,Male,245.187.252.223
297,Julienne,Ebbett,jebbett88@twitpic.com,Female,237.234.124.163
298,Ethe,McKane,emckane89@addtoany.com,Male,144.114.60.144
299,Sauncho,Borgesio,sborgesio8a@amazon.de,Male,155.65.180.14
300,Ramon,Widmoor,rwidmoor8b@xinhuanet.com,Male,23.238.1.132
301,Danni,Symonds,dsymonds8c@clickbank.net,Female,6.230.137.44
302,Cati,Licquorish,clicquorish8d@smh.com.au,Female,133.8.129.237
303,Sioux,Puddan,spuddan8e@adobe.com,Female,2.31.178.44
304,Cordi,Kebbell,ckebbell8f@4shared.com,Female,100.142.37.101
305,Fleur,Cherry Holme,fcherryholme8g@shutterfly.com,Female,153.188.16.139
306,Clarence,Pearson,cpearson8h@aol.com,Male,115.73.190.131
307,Freedman,Kasman,fkasman8i@answers.com,Male,254.64.192.71
308,Frazier,Rigate,frigate8j@ovh.net,Male,99.55.135.94
309,Chiarra,Esche,cesche8k@springer.com,Female,237.255.82.169
310,Kane,Kyberd,kkyberd8l@facebook.com,Male,248.109.56.71
311,Jolee,Eouzan,jeouzan8m@wufoo.com,Female,241.22.222.138
312,Russell,Shallow,rshallow8n@cnn.com,Male,92.241.153.21
313,Alis,Pears,apears8o@github.com,Female,218.222.77.22
314,Inger,Ainscough,iainscough8p@meetup.com,Male,164.80.192.70
315,Wain,Jacklings,wjacklings8q@dailymotion.com,Male,130.227.216.77
316,Konstantin,Treend,ktreend8r@deliciousdays.com,Male,138.95.12.69
317,Sondra,Clayhill,sclayhill8s@berkeley.edu,Female,223.68.27.152
318,Ev,Dimic,edimic8t@sciencedirect.com,Male,157.251.160.93
319,Rinaldo,Bruno,rbruno8u@domainmarket.com,Male,36.192.157.78
320,Alfy,Bourcq,abourcq8v@illinois.edu,Male,4.222.101.115
321,Hally,Lyness,hlyness8w@feedburner.com,Female,166.106.132.26
322,Christal,Imlin,cimlin8x@weebly.com,Female,160.204.131.74
323,Conni,Schruyers,cschruyers8y@yelp.com,Female,179.248.115.123
324,Engelbert,Craik,ecraik8z@ox.ac.uk,Male,11.158.212.252
325,Chiarra,Benbough,cbenbough90@mtv.com,Female,182.189.212.175
326,Bo,Hertwell,bhertwell91@google.com.au,Male,147.198.175.219
327,Anstice,McLurg,amclurg92@ning.com,Female,250.85.144.77
328,Stan,Tacker,stacker93@gov.uk,Male,247.163.221.74
329,Lidia,Erlam,lerlam94@aol.com,Female,2.43.98.142
330,Lenci,Putton,lputton95@tripod.com,Male,50.172.86.6
331,Devland,Rushbrooke,drushbrooke96@trellian.com,Male,126.184.91.70
332,Dougy,Andriessen,dandriessen97@hatena.ne.jp,Male,169.12.118.48
333,Georgia,Krysiak,gkrysiak98@sbwire.com,Female,219.100.59.174
334,Vernon,Lockhurst,vlockhurst99@webs.com,Male,181.128.66.187
335,Jamill,Cornbill,jcornbill9a@imageshack.us,Male,43.100.62.84
336,Alvinia,Heikkinen,aheikkinen9b@trellian.com,Female,107.175.25.91
337,Vasily,O' Clovan,voclovan9c@behance.net,Male,110.154.174.115
338,Benjamen,Arrighi,barrighi9d@virginia.edu,Male,199.255.96.251
339,Torrin,Falk,tfalk9e@spotify.com,Male,95.73.62.6
340,Bjorn,Skune,bskune9f@fastcompany.com,Male,62.55.114.191
341,Lotty,Lawty,llawty9g@taobao.com,Female,31.210.81.40
342,Stu,Kenset,skenset9h@cafepress.com,Male,177.95.98.209
343,Ogdan,Gready,ogready9i@wikispaces.com,Male,136.165.214.111
344,Merrili,Espinos,mespinos9j@moonfruit.com,Female,86.50.199.172
345,Christoffer,Emmett,cemmett9k@gnu.org,Male,185.74.48.248
346,Rolf,MacElharge,rmacelharge9l@lycos.com,Male,166.237.38.86
347,Frank,Whitby,fwhitby9m@ebay.com,Male,14.15.69.116
348,Dyanna,Thormwell,dthormwell9n@discuz.net,Female,60.199.51.94
349,Jeffrey,Videneev,jvideneev9o@yellowbook.com,Male,184.184.124.211
350,Rowena,Beecroft,rbeecroft9p@virginia.edu,Female,160.59.10.244
351,Joni,Ariss,jariss9q@digg.com,Female,211.53.116.108
352,Reuben,Dziwisz,rdziwisz9r@va.gov,Male,70.5.200.40
353,Eleen,Aggas,eaggas9s@youku.com,Female,173.79.114.166
354,Randi,Hackett,rhackett9t@comcast.net,Male,67.118.26.12
355,Hunfredo,Dowsing,hdowsing9u@mozilla.org,Male,142.50.248.111
356,Keary,Saket,ksaket9v@ocn.ne.jp,Male,193.90.1.252
357,Maxie,Teaz,mteaz9w@unblog.fr,Male,58.187.75.74
358,Janek,Vittori,jvittori9x@smh.com.au,Male,14.177.186.234
359,Buiron,Old,bold9y@adobe.com,Male,115.27.32.182
360,Fraze,Barson,fbarson9z@tinyurl.com,Male,79.189.131.145
361,Kamillah,Ciobotaru,kciobotarua0@free.fr,Female,198.251.167.233
362,Carolus,Shireff,cshireffa1@trellian.com,Male,79.219.73.197
363,Madison,Webburn,mwebburna2@xing.com,Male,252.92.2.167
364,Wallace,Digges,wdiggesa3@geocities.com,Male,89.235.211.92
365,Maren,Ismirnioglou,mismirniogloua4@com.com,Female,72.124.172.77
366,Moses,Benito,mbenitoa5@hp.com,Male,110.132.240.170
367,Robina,Lewington,rlewingtona6@elpais.com,Female,9.8.217.61
368,Brana,De Antoni,bdeantonia7@usda.gov,Female,99.93.177.82
369,Ricoriki,St. Louis,rstlouisa8@ox.ac.uk,Male,133.38.14.251
370,Eda,Leggon,eleggona9@un.org,Female,49.111.229.71
371,Phillis,Denziloe,pdenziloeaa@forbes.com,Female,140.51.237.149
372,Pattie,Antonioni,pantonioniab@wired.com,Female,242.212.40.102
373,Philbert,Sowley,psowleyac@about.com,Male,152.32.102.207
374,Corrine,Gunston,cgunstonad@soundcloud.com,Female,146.11.215.182
375,Lexis,Cathenod,lcathenodae@merriam-webster.com,Female,107.69.147.101
376,Debby,Peers,dpeersaf@princeton.edu,Female,12.73.249.110
377,Valaria,Starrs,vstarrsag@ezinearticles.com,Female,231.237.181.228
378,Brynne,Boultwood,bboultwoodah@phoca.cz,Female,177.199.175.146
379,Al,Aristide,aaristideai@simplemachines.org,Male,230.114.249.161
380,Grazia,Dietz,gdietzaj@spotify.com,Female,92.185.125.59
381,Tye,Moulsdall,tmoulsdallak@weebly.com,Male,116.245.172.104
382,Lydie,Botwright,lbotwrightal@about.com,Female,52.162.12.229
383,Tyler,Beale,tbealeam@miitbeian.gov.cn,Male,61.125.209.229
384,Shawnee,Khidr,skhidran@bloomberg.com,Female,40.19.9.134
385,Bondie,Shakesby,bshakesbyao@163.com,Male,189.76.193.85
386,Revkah,Zavattero,rzavatteroap@1688.com,Female,206.141.119.32
387,Justinian,Trosdall,jtrosdallaq@house.gov,Male,193.91.123.179
388,Hamid,Woodland,hwoodlandar@php.net,Male,200.239.47.60
389,Kellina,Girvin,kgirvinas@tripod.com,Female,156.155.202.185
390,Kareem,Sephton,ksephtonat@about.me,Male,101.152.252.77
391,Linzy,Doxey,ldoxeyau@printfriendly.com,Female,253.244.96.20
392,Kelcie,Beardsley,kbeardsleyav@blogtalkradio.com,Female,61.21.250.165
393,Katharine,Goscomb,kgoscombaw@hubpages.com,Female,47.188.46.97
394,Wilfrid,Dredge,wdredgeax@vkontakte.ru,Male,185.175.107.231
395,Mikkel,Youthed,myoutheday@behance.net,Male,236.36.6.116
396,Ivan,Stetson,istetsonaz@apache.org,Male,23.247.90.118
397,Robbert,Bowater,rbowaterb0@paginegialle.it,Male,121.117.45.79
398,Lionello,Dougal,ldougalb1@paypal.com,Male,40.71.73.6
399,Kinnie,Haddock,khaddockb2@opensource.org,Male,0.186.139.62
400,Gifford,Fansy,gfansyb3@businesswire.com,Male,234.21.78.126
401,Royce,Farrimond,rfarrimondb4@skype.com,Male,114.37.106.227
402,Dane,Puzey,dpuzeyb5@homestead.com,Male,207.113.241.213
403,Alwyn,Izzett,aizzettb6@stanford.edu,Male,64.120.199.209
404,Kasper,Hartright,khartrightb7@xrea.com,Male,26.134.85.225
405,Rosie,Caldow,rcaldowb8@sfgate.com,Female,113.201.6.20
406,Fleurette,Cahalin,fcahalinb9@tuttocitta.it,Female,96.209.203.23
407,Stefan,Glave,sglaveba@bigcartel.com,Male,199.236.72.153
408,Sissie,Naismith,snaismithbb@google.com.au,Female,60.113.25.65
409,Trstram,Pockett,tpockettbc@ftc.gov,Male,150.21.78.119
410,Jarid,Crathern,jcrathernbd@ustream.tv,Male,25.57.31.39
411,Viki,Lockier,vlockierbe@techcrunch.com,Female,104.50.6.253
412,Elwood,Housam,ehousambf@desdev.cn,Male,104.0.175.116
413,Iggy,Henker,ihenkerbg@ycombinator.com,Male,123.143.165.130
414,Marin,Hawkeridge,mhawkeridgebh@vistaprint.com,Female,226.237.37.254
415,Clareta,Antoney,cantoneybi@bravesites.com,Female,95.105.243.169
416,Howie,Jumel,hjumelbj@chronoengine.com,Male,186.218.148.74
417,Aldin,McKinnell,amckinnellbk@sina.com.cn,Male,209.229.61.56
418,Sella,Gutans,sgutansbl@dagondesign.com,Female,38.123.68.166
419,Weber,Meert,wmeertbm@amazon.co.uk,Male,191.195.195.50
420,Kaleb,Tuddenham,ktuddenhambn@alibaba.com,Male,131.24.101.155
421,Marilee,Krelle,mkrellebo@livejournal.com,Female,51.154.151.95
422,Seka,Curdell,scurdellbp@simplemachines.org,Female,45.6.204.83
423,Alley,Harflete,aharfletebq@hubpages.com,Male,45.255.84.77
424,Heida,Drain,hdrainbr@noaa.gov,Female,171.48.216.175
425,Mayer,Gervaise,mgervaisebs@independent.co.uk,Male,28.112.177.174
426,Daniela,Haverson,dhaversonbt@uol.com.br,Female,113.188.229.190
427,Saundra,Sexty,ssextybu@hhs.gov,Female,140.21.106.82
428,Joelie,Siege,jsiegebv@tinyurl.com,Female,119.34.215.0
429,Veda,Abercrombie,vabercrombiebw@addtoany.com,Female,21.243.42.22
430,Orelle,McClelland,omcclellandbx@privacy.gov.au,Female,32.12.225.45
431,Burtie,Braithwaite,bbraithwaiteby@unicef.org,Male,122.37.173.95
432,Hill,Haydon,hhaydonbz@oakley.com,Male,61.120.146.29
433,Patten,Agus,pagusc0@bluehost.com,Male,202.116.129.33
434,Zackariah,Moline,zmolinec1@sphinn.com,Male,233.238.76.45
435,Dacey,Staley,dstaleyc2@qq.com,Female,43.3.66.175
436,Klement,Boynes,kboynesc3@ebay.com,Male,202.241.18.43
437,Beverie,Rivalant,brivalantc4@skyrock.com,Female,172.49.34.195
438,Willem,Jammet,wjammetc5@businesswire.com,Male,188.186.80.175
439,Melinde,Symmers,msymmersc6@hao123.com,Female,163.201.102.125
440,Morie,Epton,meptonc7@clickbank.net,Male,210.111.34.244
441,Torie,Ells,tellsc8@1688.com,Female,212.201.96.28
442,Levy,Villaron,lvillaronc9@com.com,Male,179.251.115.243
443,Obie,Pitkethly,opitkethlyca@imgur.com,Male,248.118.69.110
444,Dael,MacGiffin,dmacgiffincb@ed.gov,Female,61.100.186.182
445,Raymond,Gobbet,rgobbetcc@seesaa.net,Male,194.58.175.4
446,Brennen,Thrower,bthrowercd@china.com.cn,Male,106.55.46.102
447,Rafferty,Baudesson,rbaudessonce@businessinsider.com,Male,128.201.125.126
448,Dante,Kennifeck,dkennifeckcf@indiatimes.com,Male,106.104.90.173
449,Asia,Nutbean,anutbeancg@friendfeed.com,Female,153.81.120.199
450,Genevra,Wakeman,gwakemanch@paginegialle.it,Female,106.160.136.223
451,Goddard,Widdowfield,gwiddowfieldci@ow.ly,Male,121.138.33.161
452,Maura,McKeon,mmckeoncj@devhub.com,Female,196.61.205.76
453,Eirena,Broadberry,ebroadberryck@joomla.org,Female,177.162.75.70
454,Leonardo,Giroldi,lgiroldicl@walmart.com,Male,219.116.228.253
455,Tara,Wybrow,twybrowcm@marketwatch.com,Female,214.216.31.78
456,Jilleen,Blasoni,jblasonicn@businessinsider.com,Female,134.164.222.96
457,Krissy,Thoresbie,kthoresbieco@webeden.co.uk,Female,135.82.194.215
458,Justine,Brownscombe,jbrownscombecp@chicagotribune.com,Female,6.61.34.48
459,Adham,Waker,awakercq@gravatar.com,Male,202.1.104.216
460,Gayle,Aronow,garonowcr@edublogs.org,Female,254.102.2.112
461,Mathe,Guillain,mguillaincs@storify.com,Male,15.162.82.150
462,Gretel,Jacson,gjacsonct@gravatar.com,Female,114.120.57.81
463,Burtie,Nussen,bnussencu@zdnet.com,Male,213.223.85.194
464,Brandise,Rapper,brappercv@youtu.be,Female,159.234.255.195
465,Erik,Woodfin,ewoodfincw@altervista.org,Male,32.151.80.172
466,Remus,Shoppee,rshoppeecx@xing.com,Male,217.234.229.200
467,Deane,Uccelli,duccellicy@w3.org,Male,253.42.114.223
468,Sal,Rounds,sroundscz@jimdo.com,Male,76.130.223.225
469,Kerby,Thrasher,kthrasherd0@yellowbook.com,Male,82.132.15.254
470,Bride,Glasard,bglasardd1@youtube.com,Female,61.244.230.255
471,Edik,Gilman,egilmand2@rakuten.co.jp,Male,51.93.212.94
472,Sadie,Berendsen,sberendsend3@ucoz.com,Female,224.49.7.96
473,Dorothy,Thinn,dthinnd4@netscape.com,Female,90.3.174.4
474,Pasquale,Celier,pcelierd5@privacy.gov.au,Male,9.169.190.148
475,Keri,Marians,kmariansd6@ebay.com,Female,178.36.46.74
476,Noak,Oleszkiewicz,noleszkiewiczd7@theguardian.com,Male,102.239.70.230
477,Merissa,Coultas,mcoultasd8@wikipedia.org,Female,92.22.146.67
478,Korry,Tickel,ktickeld9@kickstarter.com,Female,84.204.158.72
479,Weylin,Barth,wbarthda@foxnews.com,Male,247.75.47.149
480,Jervis,Marsham,jmarshamdb@goodreads.com,Male,161.83.104.31
481,Alaine,Hitschke,ahitschkedc@google.nl,Female,192.22.254.210
482,Claresta,D'Aeth,cdaethdd@moonfruit.com,Female,228.119.225.220
483,Brennen,Danford,bdanfordde@rakuten.co.jp,Male,10.57.240.189
484,Olivie,Nevison,onevisondf@people.com.cn,Female,234.32.172.189
485,Ana,Drakeford,adrakeforddg@fema.gov,Female,7.223.83.92
486,Candi,Weigh,cweighdh@jigsy.com,Female,7.65.238.143
487,Georgi,Scotford,gscotforddi@uiuc.edu,Male,219.91.23.111
488,Augie,Stockau,astockaudj@columbia.edu,Male,161.248.229.223
489,Chan,Ainslie,cainsliedk@chicagotribune.com,Male,229.179.82.179
490,Darda,Eggerton,deggertondl@geocities.jp,Female,211.151.254.245
491,Ingamar,Hartop,ihartopdm@jalbum.net,Male,52.116.16.44
492,Heindrick,Blazhevich,hblazhevichdn@imdb.com,Male,135.209.241.174
493,Laetitia,Wheatman,lwheatmando@pbs.org,Female,210.135.139.224
494,Ula,Escott,uescottdp@jiathis.com,Female,135.30.19.96
495,Karee,Garroch,kgarrochdq@phoca.cz,Female,131.204.231.240
496,Mildred,Loud,mlouddr@elegantthemes.com,Female,109.195.189.181
497,Gaby,Azam,gazamds@linkedin.com,Male,185.253.0.96
498,Ase,Senten,asentendt@51.la,Male,74.243.169.44
499,Margie,Booi,mbooidu@cafepress.com,Female,206.195.255.184
500,Gregor,Burris,gburrisdv@xrea.com,Male,112.219.246.231
501,Stacy,Hamblen,shamblendw@w3.org,Male,25.150.19.216
502,Laetitia,Terry,lterrydx@godaddy.com,Female,0.142.158.56
503,Virgina,Possell,vposselldy@networksolutions.com,Female,205.144.192.17
504,Lauritz,Iannazzi,liannazzidz@linkedin.com,Male,242.89.110.73
505,Panchito,Dufore,pduforee0@vk.com,Male,113.109.167.236
506,Willy,Marchenko,wmarchenkoe1@mysql.com,Male,147.127.98.195
507,Gabey,Jouanot,gjouanote2@1und1.de,Female,7.90.125.240
508,Gael,Gearing,ggearinge3@yandex.ru,Female,31.103.56.130
509,Carter,Ivens,civense4@wiley.com,Male,240.18.128.151
510,Charin,Scoggans,cscogganse5@networkadvertising.org,Female,10.138.77.157
511,Lenka,Motten,lmottene6@spiegel.de,Female,231.227.202.134
512,Thomasine,Popescu,tpopescue7@hp.com,Female,162.188.204.152
513,Billy,Stainfield,bstainfielde8@weebly.com,Male,52.164.20.48
514,Pierce,Wyllcocks,pwyllcockse9@diigo.com,Male,27.100.247.64
515,Carlie,Synnot,csynnotea@newyorker.com,Female,106.60.156.11
516,Maryanne,Thackray,mthackrayeb@clickbank.net,Female,13.213.23.51
517,Itch,Songest,isongestec@amazon.de,Male,254.91.245.10
518,Frasco,Curmi,fcurmied@dell.com,Male,228.39.10.23
519,Trenna,Elegood,telegoodee@meetup.com,Female,43.124.6.184
520,Letti,Pettingall,lpettingallef@sakura.ne.jp,Female,91.116.100.68
521,Emmet,Brearton,ebreartoneg@ibm.com,Male,242.132.12.171
522,Mavis,Sweetsur,msweetsureh@ed.gov,Female,254.239.179.170
523,Ermina,Childs,echildsei@ebay.com,Female,15.120.220.49
524,Egan,Witnall,ewitnallej@ox.ac.uk,Male,231.61.239.230
525,Francisco,Ollivier,follivierek@topsy.com,Male,93.34.54.132
526,Henrie,Hourihane,hhourihaneel@cbsnews.com,Female,49.174.236.125
527,Thurston,Battelle,tbattelleem@51.la,Male,77.177.16.81
528,Kaitlyn,Fierman,kfiermanen@uol.com.br,Female,16.45.242.93
529,Yetty,Rathmell,yrathmelleo@illinois.edu,Female,172.83.159.60
530,Harlen,Ellaman,hellamanep@seesaa.net,Male,68.48.112.243
531,Tomas,McCosker,tmccoskereq@dailymotion.com,Male,64.9.173.80
532,Bennett,McCombe,bmccombeer@comsenz.com,Male,72.185.99.87
533,Brana,Andrat,bandrates@ning.com,Female,34.38.101.66
534,Johna,Dalli,jdalliet@yolasite.com,Female,33.137.95.62
535,Hedi,Bayne,hbayneeu@1und1.de,Female,68.61.117.209
536,Paloma,Mitchinson,pmitchinsonev@taobao.com,Female,224.95.97.94
537,Englebert,Laurie,elaurieew@google.co.uk,Male,106.80.165.182
538,Ivette,Dimmer,idimmerex@list-manage.com,Female,210.200.235.144
539,Sidney,Pregal,spregaley@msn.com,Male,180.55.213.208
540,Jerry,Boughtwood,jboughtwoodez@ezinearticles.com,Male,93.157.71.207
541,Roddy,Bodechon,rbodechonf0@earthlink.net,Male,165.39.179.42
542,Julie,Scardifield,jscardifieldf1@nature.com,Female,4.128.136.188
543,Harriott,McGookin,hmcgookinf2@paginegialle.it,Female,128.86.20.222
544,Andres,Vallentin,avallentinf3@pcworld.com,Male,51.24.74.120
545,Claudie,Sheeran,csheeranf4@geocities.jp,Female,255.80.20.192
546,Uri,Evelyn,uevelynf5@lulu.com,Male,142.42.245.101
547,Jakie,Vitet,jvitetf6@icio.us,Male,216.248.175.226
548,Carlynn,George,cgeorgef7@shop-pro.jp,Female,234.149.245.14
549,Cassandry,Gazzard,cgazzardf8@clickbank.net,Female,79.11.177.189
550,Jules,Haighton,jhaightonf9@state.gov,Male,230.132.84.158
551,Caril,Killerby,ckillerbyfa@sourceforge.net,Female,0.178.170.194
552,Marmaduke,Fike,mfikefb@cnet.com,Male,240.200.243.85
553,Hallie,Salzberg,hsalzbergfc@europa.eu,Female,142.163.253.116
554,Mohandis,Ginity,mginityfd@smugmug.com,Male,207.199.55.192
555,Rolfe,Martinolli,rmartinollife@pagesperso-orange.fr,Male,63.56.145.129
556,Heath,Jeenes,hjeenesff@booking.com,Female,50.237.144.173
557,Esta,Heaslip,eheaslipfg@sitemeter.com,Female,57.249.150.233
558,Janith,Finlator,jfinlatorfh@sciencedaily.com,Female,233.241.151.5
559,Jareb,Housbey,jhousbeyfi@vinaora.com,Male,104.146.79.152
560,Wolfy,Keeney,wkeeneyfj@newyorker.com,Male,230.165.184.166
561,Quinton,Champion,qchampionfk@is.gd,Male,212.148.80.155
562,Edeline,Charles,echarlesfl@homestead.com,Female,221.128.106.14
563,Winonah,Hillett,whillettfm@gravatar.com,Female,237.105.166.47
564,Lissy,Vakhrushin,lvakhrushinfn@biglobe.ne.jp,Female,32.205.236.169
565,Fannie,Edelheit,fedelheitfo@about.me,Female,28.228.173.212
566,Caty,Lamperd,clamperdfp@stumbleupon.com,Female,178.29.89.194
567,Alameda,Dimanche,adimanchefq@bigcartel.com,Female,56.9.240.173
568,Victoria,Drysdall,vdrysdallfr@mail.ru,Female,91.97.170.219
569,Avram,Misk,amiskfs@zdnet.com,Male,110.201.252.35
570,Starlin,Speak,sspeakft@unicef.org,Female,210.19.239.32
571,Anissa,Barthelme,abarthelmefu@mapy.cz,Female,1.41.64.149
572,Nichol,Tue,ntuefv@va.gov,Female,19.0.192.174
573,Trixi,Wavell,twavellfw@ucoz.ru,Female,47.213.92.226
574,Nicol,Ende,nendefx@yahoo.co.jp,Male,7.197.64.75
575,Oberon,Vango,ovangofy@mayoclinic.com,Male,13.131.170.35
576,Sybille,Novis,snovisfz@intel.com,Female,117.203.207.222
577,Garret,Rosen,groseng0@nytimes.com,Male,78.30.93.62
578,Ximenez,Hoff,xhoffg1@webs.com,Male,90.89.77.153
579,Reinwald,Kiendl,rkiendlg2@infoseek.co.jp,Male,162.88.73.224
580,Omero,Howis,ohowisg3@wsj.com,Male,215.247.188.250
581,Chrotoem,Elwell,celwellg4@ftc.gov,Male,90.119.18.225
582,Odo,Tanser,otanserg5@sakura.ne.jp,Male,108.249.97.116
583,Audre,Challens,achallensg6@vkontakte.ru,Female,167.143.89.184
584,Panchito,Harses,pharsesg7@artisteer.com,Male,149.127.108.70
585,Dee dee,McGeneay,dmcgeneayg8@addthis.com,Female,98.110.51.73
586,Gizela,Dubble,gdubbleg9@hhs.gov,Female,36.120.142.74
587,Jeremy,Kernaghan,jkernaghanga@behance.net,Male,140.252.145.253
588,Oralee,Oty,ootygb@typepad.com,Female,158.137.75.222
589,Shelly,Moroney,smoroneygc@walmart.com,Female,72.234.193.216
590,Sloane,Rushe,srushegd@soundcloud.com,Male,202.162.245.142
591,Jakie,Fransewich,jfransewichge@dedecms.com,Male,138.230.11.129
592,Josey,Zanotti,jzanottigf@nymag.com,Female,57.242.25.167
593,Hoyt,Colin,hcolingg@posterous.com,Male,194.62.123.226
594,Stacy,Dadge,sdadgegh@amazon.de,Female,13.218.169.37
595,Blane,Deeth,bdeethgi@prnewswire.com,Male,156.136.115.213
596,Shep,Jewkes,sjewkesgj@scribd.com,Male,62.209.80.144
597,Gale,Grayson,ggraysongk@tuttocitta.it,Male,149.165.89.170
598,Lorianne,Warlowe,lwarlowegl@statcounter.com,Female,35.167.111.192
599,Herby,Minghi,hminghigm@oracle.com,Male,247.138.183.156
600,Katalin,Stallan,kstallangn@samsung.com,Female,183.222.227.8
601,Maisie,Halfacre,mhalfacrego@reuters.com,Female,11.17.186.67
602,Carroll,Shovlin,cshovlingp@posterous.com,Male,129.144.128.71
603,Ariel,Ravenhill,aravenhillgq@quantcast.com,Female,211.102.76.172
604,Angelika,Hawtrey,ahawtreygr@yahoo.com,Female,186.57.159.152
605,Nickolas,Cowpland,ncowplandgs@patch.com,Male,43.248.91.26
606,Brandice,Huzzey,bhuzzeygt@php.net,Female,241.105.130.192
607,Rebecka,Kleinmann,rkleinmanngu@nytimes.com,Female,145.12.50.200
608,Alfons,Muckeen,amuckeengv@ehow.com,Male,164.238.90.185
609,Sonnie,Arbor,sarborgw@angelfire.com,Female,204.220.95.19
610,Renelle,Bramo,rbramogx@archive.org,Female,87.163.54.27
611,Ilyssa,Skitral,iskitralgy@unesco.org,Female,91.244.163.19
612,Sutherland,Dorling,sdorlinggz@xing.com,Male,176.60.80.135
613,Tucker,Brawson,tbrawsonh0@gov.uk,Male,14.206.212.37
614,Margarethe,MacGarrity,mmacgarrityh1@skype.com,Female,60.157.124.81
615,Horton,Shefton,hsheftonh2@hugedomains.com,Male,164.22.53.37
616,Yvon,Wilder,ywilderh3@godaddy.com,Male,46.82.154.186
617,Corbett,Laite,claiteh4@friendfeed.com,Male,61.170.205.119
618,Aidan,Sivior,asiviorh5@nyu.edu,Female,147.27.18.232
619,Jehu,Baruch,jbaruchh6@cbslocal.com,Male,78.6.243.111
620,Flossi,Pirri,fpirrih7@mozilla.org,Female,46.85.127.211
621,Lorilyn,Dooher,ldooherh8@sphinn.com,Female,127.191.124.229
622,Blythe,Lyddy,blyddyh9@salon.com,Female,21.148.110.223
623,Dolly,Freathy,dfreathyha@nhs.uk,Female,95.22.242.15
624,Claire,Casley,ccasleyhb@live.com,Female,218.20.162.129
625,Leonelle,Gueste,lguestehc@topsy.com,Female,159.117.108.236
626,Claudina,Korneichuk,ckorneichukhd@google.ru,Female,18.233.10.25
627,Shelley,MacPaik,smacpaikhe@washingtonpost.com,Female,136.175.133.165
628,Grange,McEttigen,gmcettigenhf@china.com.cn,Male,71.177.98.93
629,Edgard,Springall,espringallhg@usda.gov,Male,137.221.179.81
630,Bancroft,Leonard,bleonardhh@gizmodo.com,Male,90.56.223.144
631,Harvey,Belison,hbelisonhi@ocn.ne.jp,Male,5.124.162.237
632,Filmer,Itzkov,fitzkovhj@wufoo.com,Male,188.0.167.65
633,Duke,Cunniam,dcunniamhk@cisco.com,Male,177.229.189.178
634,Tabbitha,Bowery,tboweryhl@google.com,Female,99.76.143.101
635,Liane,Haddeston,lhaddestonhm@virginia.edu,Female,147.0.166.40
636,Jessa,Mumberson,jmumbersonhn@1688.com,Female,72.29.32.226
637,Darill,Pratley,dpratleyho@arizona.edu,Male,2.181.14.15
638,Albrecht,Coggan,acogganhp@php.net,Male,255.5.184.44
639,Grant,Lidgard,glidgardhq@economist.com,Male,15.106.248.112
640,Maryjo,Clewley,mclewleyhr@biblegateway.com,Female,63.94.110.132
641,Gabrielle,Matzl,gmatzlhs@slate.com,Female,237.169.126.214
642,Arri,Rudyard,arudyardht@altervista.org,Male,185.206.227.7
643,Bertram,William,bwilliamhu@economist.com,Male,141.120.80.151
644,Wenda,Elfleet,welfleethv@soup.io,Female,67.160.229.164
645,Ambrosius,Mealiffe,amealiffehw@foxnews.com,Male,56.82.143.9
646,Luis,Fawdrie,lfawdriehx@wunderground.com,Male,98.228.33.69
647,Richardo,Jan,rjanhy@rediff.com,Male,18.38.2.18
648,Maire,Ducker,mduckerhz@dot.gov,Female,53.189.174.139
649,Caryn,Poure,cpourei0@fema.gov,Female,85.91.165.32
650,Ezekiel,Morphew,emorphewi1@dailymotion.com,Male,46.176.7.172
651,Alverta,Rowes,arowesi2@last.fm,Female,246.247.98.75
652,Rebeka,Hindrick,rhindricki3@globo.com,Female,46.251.18.96
653,Gwenni,Chalmers,gchalmersi4@digg.com,Female,98.248.165.217
654,Obidiah,Cantrill,ocantrilli5@com.com,Male,133.54.48.157
655,Creight,Chomicz,cchomiczi6@smh.com.au,Male,235.146.133.84
656,Hermy,Terbrugge,hterbruggei7@reference.com,Male,210.121.133.45
657,Maurits,Lindeboom,mlindeboomi8@de.vu,Male,232.51.11.69
658,Freedman,Atthowe,fatthowei9@hatena.ne.jp,Male,126.76.12.219
659,Nancey,Winkless,nwinklessia@ameblo.jp,Female,94.195.61.12
660,Brandice,Gonsalvez,bgonsalvezib@multiply.com,Female,118.141.236.45
661,Danny,Talman,dtalmanic@hugedomains.com,Male,121.33.248.160
662,Quintin,Cracie,qcracieid@facebook.com,Male,225.236.22.228
663,Donnie,Aubrey,daubreyie@huffingtonpost.com,Male,93.45.84.226
664,Krissy,Gatty,kgattyif@ftc.gov,Female,49.9.166.12
665,Giordano,Pentlow,gpentlowig@hc360.com,Male,115.53.238.65
666,Florella,Flatt,fflattih@mtv.com,Female,1.203.246.217
667,Percy,Palomba,ppalombaii@bloglines.com,Male,48.52.96.149
668,Patrizia,Humbles,phumblesij@economist.com,Female,68.76.217.235
669,Caty,Ribbens,cribbensik@goodreads.com,Female,217.100.230.255
670,Tull,Goodday,tgooddayil@yellowbook.com,Male,217.249.187.141
671,Klara,Titmuss,ktitmussim@cyberchimps.com,Female,158.92.153.145
672,Jedd,Litterick,jlitterickin@statcounter.com,Male,15.94.89.251
673,Zacharias,Partridge,zpartridgeio@cam.ac.uk,Male,204.65.181.43
674,Justino,Ramsbotham,jramsbothamip@multiply.com,Male,252.233.191.185
675,Bob,Stobbs,bstobbsiq@elpais.com,Male,229.4.165.113
676,Maegan,Bauer,mbauerir@cpanel.net,Female,195.33.152.22
677,Bernete,Duffitt,bduffittis@php.net,Female,113.182.199.162
678,Leupold,MacDunleavy,lmacdunleavyit@buzzfeed.com,Male,107.105.179.134
679,Abigael,Millett,amillettiu@dot.gov,Female,79.134.102.80
680,Darbee,Von Brook,dvonbrookiv@japanpost.jp,Male,124.225.150.82
681,Neill,Palin,npaliniw@pagesperso-orange.fr,Male,208.83.176.164
682,Vikky,Blucher,vblucherix@reference.com,Female,213.232.41.233
683,Roderich,Bischop,rbischopiy@google.de,Male,122.255.46.143
684,Billy,Poinsett,bpoinsettiz@miitbeian.gov.cn,Male,80.23.99.22
685,Birk,Magnus,bmagnusj0@weebly.com,Male,74.215.166.136
686,Ashla,Windybank,awindybankj1@examiner.com,Female,105.94.129.100
687,Livvie,Whitmell,lwhitmellj2@cnbc.com,Female,56.64.245.243
688,Ashia,Merigeau,amerigeauj3@mapy.cz,Female,137.36.49.241
689,Raffarty,Sweatman,rsweatmanj4@github.io,Male,166.248.183.202
690,Rogers,Hawtry,rhawtryj5@cargocollective.com,Male,182.32.94.185
691,Lucas,Davidow,ldavidowj6@technorati.com,Male,51.243.81.99
692,Ezra,Saulter,esaulterj7@purevolume.com,Male,78.234.86.215
693,Miles,Dublin,mdublinj8@ebay.com,Male,25.169.237.188
694,Cassi,Camplin,ccamplinj9@nationalgeographic.com,Female,29.126.10.42
695,Fin,Harg,fhargja@lulu.com,Male,121.9.119.252
696,Nalani,Kingsnoad,nkingsnoadjb@cyberchimps.com,Female,160.163.253.130
697,Caro,Athy,cathyjc@shareasale.com,Female,153.166.65.145
698,Suzanne,Raymont,sraymontjd@google.com,Female,69.109.143.179
699,Dona,Biggar,dbiggarje@wired.com,Female,236.251.214.192
700,Carmela,Cellier,ccellierjf@exblog.jp,Female,252.122.152.247
701,Brena,Van Baaren,bvanbaarenjg@sun.com,Female,106.68.223.243
702,Derk,Dissman,ddissmanjh@feedburner.com,Male,52.12.138.15
703,Leonie,Nuzzi,lnuzziji@stumbleupon.com,Female,116.22.128.12
704,Lindy,Jemison,ljemisonjj@msn.com,Female,200.108.242.14
705,Tracy,Seeviour,tseeviourjk@mediafire.com,Male,1.125.237.160
706,Margy,Lammiman,mlammimanjl@hubpages.com,Female,229.34.249.121
707,Rosemary,Scargill,rscargilljm@businesswire.com,Female,21.193.85.236
708,Chico,Heyns,cheynsjn@com.com,Male,165.34.69.242
709,Georgine,Valler,gvallerjo@imdb.com,Female,9.156.234.193
710,Edy,O'Lochan,eolochanjp@statcounter.com,Female,173.6.146.227
711,Ursula,Serotsky,userotskyjq@msn.com,Female,250.154.64.62
712,Marget,Snelle,msnellejr@skyrock.com,Female,99.131.231.143
713,Rhoda,Spurrier,rspurrierjs@japanpost.jp,Female,56.199.240.194
714,Syd,Pedrollo,spedrollojt@jigsy.com,Male,45.75.158.154
715,Shell,Gutridge,sgutridgeju@free.fr,Female,152.32.211.103
716,Jdavie,Rosson,jrossonjv@symantec.com,Male,7.128.121.7
717,Germaine,Grealy,ggrealyjw@redcross.org,Male,86.106.150.142
718,Sonnie,Saice,ssaicejx@youtube.com,Male,60.238.164.134
719,Holli,Metheringham,hmetheringhamjy@businesswire.com,Female,235.178.107.103
720,Cleavland,Wincom,cwincomjz@nsw.gov.au,Male,169.162.119.184
721,Wiley,Orrett,worrettk0@furl.net,Male,168.78.29.73
722,Nevsa,Gaythwaite,ngaythwaitek1@alibaba.com,Female,27.64.185.189
723,Juieta,Duffil,jduffilk2@goo.ne.jp,Female,43.201.218.177
724,Phaidra,Janman,pjanmank3@wikispaces.com,Female,224.178.81.17
725,Constantine,Janssen,cjanssenk4@e-recht24.de,Female,201.113.100.65
726,Rickey,Crowcombe,rcrowcombek5@typepad.com,Male,75.185.234.33
727,Abran,Cassell,acassellk6@mapy.cz,Male,141.203.142.209
728,Chalmers,Kippling,ckipplingk7@google.com.au,Male,214.199.8.201
729,Ula,Leftly,uleftlyk8@taobao.com,Female,251.185.64.65
730,Bryn,Frood,bfroodk9@weibo.com,Female,115.217.186.78
731,Dotti,Aleveque,dalevequeka@pbs.org,Female,232.29.167.91
732,Evey,Glawsop,eglawsopkb@feedburner.com,Female,75.37.86.76
733,Riley,Congdon,rcongdonkc@examiner.com,Male,77.188.194.146
734,Shel,Worsom,sworsomkd@github.com,Female,35.10.252.95
735,Joly,Willmott,jwillmottke@istockphoto.com,Female,132.242.253.39
736,Mick,Kinnane,mkinnanekf@printfriendly.com,Male,54.34.111.245
737,Sylvia,Schlagh,sschlaghkg@bloglines.com,Female,182.246.131.42
738,Wolfie,Scain,wscainkh@dell.com,Male,14.158.227.13
739,Riobard,Belcham,rbelchamki@fotki.com,Male,35.93.193.83
740,Cinderella,Dougal,cdougalkj@redcross.org,Female,71.166.233.210
741,Ethe,Spafford,espaffordkk@shutterfly.com,Male,175.81.79.75
742,Genni,McCrie,gmccriekl@bbb.org,Female,217.216.125.50
743,Celinda,Ivanonko,civanonkokm@bizjournals.com,Female,63.251.85.186
744,Gerome,Dalyell,gdalyellkn@delicious.com,Male,220.232.79.74
745,Claretta,Matterdace,cmatterdaceko@state.gov,Female,227.217.61.202
746,Hazlett,Dring,hdringkp@paginegialle.it,Male,11.22.228.189
747,Moria,Craster,mcrasterkq@dedecms.com,Female,247.5.44.152
748,Bond,Blumfield,bblumfieldkr@wikimedia.org,Male,43.227.235.80
749,Andres,Beedham,abeedhamks@spotify.com,Male,19.123.28.182
750,Lorelei,Thomassen,lthomassenkt@topsy.com,Female,255.192.139.252
751,Madelaine,Wiggett,mwiggettku@twitpic.com,Female,98.128.31.142
752,Wakefield,Curling,wcurlingkv@dagondesign.com,Male,170.46.255.222
753,Tulley,Raimbauld,traimbauldkw@wufoo.com,Male,2.215.176.179
754,Derril,Voelker,dvoelkerkx@netvibes.com,Male,115.131.20.54
755,Hillie,Cullingford,hcullingfordky@xinhuanet.com,Male,235.82.246.132
756,Bastien,Stanbro,bstanbrokz@livejournal.com,Male,242.70.200.106
757,Sella,Allchin,sallchinl0@reference.com,Female,213.114.155.37
758,Leda,Beebe,lbeebel1@geocities.com,Female,95.186.231.251
759,Pedro,Klainman,pklainmanl2@businessinsider.com,Male,206.181.184.88
760,Benjie,Roll,brolll3@artisteer.com,Male,125.59.233.19
761,Roberto,Carsberg,rcarsbergl4@smh.com.au,Male,138.68.187.33
762,Currie,Phin,cphinl5@mit.edu,Male,81.195.193.239
763,Adolphe,Stainton - Skinn,astaintonskinnl6@w3.org,Male,138.14.237.165
764,Clayton,D'eath,cdeathl7@flickr.com,Male,146.225.109.148
765,Cirstoforo,Huckstepp,chucksteppl8@si.edu,Male,225.64.107.189
766,Myrilla,Parell,mparelll9@sohu.com,Female,29.5.234.11
767,Rodney,Matthessen,rmatthessenla@devhub.com,Male,162.67.11.119
768,Palmer,Pietesch,ppieteschlb@businesswire.com,Male,241.245.60.97
769,Fabian,Moss,fmosslc@rambler.ru,Male,65.55.65.188
770,Sheila-kathryn,Black,sblackld@goo.gl,Female,116.108.65.246
771,Madonna,Bayfield,mbayfieldle@github.io,Female,208.45.165.147
772,Tess,Ploughwright,tploughwrightlf@bloomberg.com,Female,124.219.123.75
773,Maurie,Skyme,mskymelg@wikia.com,Male,222.199.29.60
774,Mikel,Hammon,mhammonlh@example.com,Male,74.228.167.225
775,Verena,Noulton,vnoultonli@xing.com,Female,87.8.132.168
776,Crista,Klimkowski,cklimkowskilj@biblegateway.com,Female,147.106.22.158
777,Hussein,Willmore,hwillmorelk@surveymonkey.com,Male,75.49.44.127
778,Cord,Kinkead,ckinkeadll@rambler.ru,Male,139.124.86.143
779,Briano,Dacombe,bdacombelm@ehow.com,Male,93.225.249.93
780,Rabi,Frowde,rfrowdeln@soup.io,Male,46.245.12.209
781,Onfroi,Breem,obreemlo@theatlantic.com,Male,228.218.35.43
782,Nollie,Wibrow,nwibrowlp@harvard.edu,Female,140.175.150.178
783,Edgard,D'Souza,edsouzalq@tinyurl.com,Male,26.67.107.40
784,Marysa,Holhouse,mholhouselr@phoca.cz,Female,140.101.36.190
785,Zack,Rossoni,zrossonils@cnn.com,Male,125.179.219.166
786,Jazmin,Caillou,jcailloult@berkeley.edu,Female,237.45.113.216
787,Torrence,Camp,tcamplu@ihg.com,Male,237.180.98.241
788,Zonnya,Varvara,zvarvaralv@nymag.com,Female,41.191.100.40
789,Richy,Furse,rfurselw@opera.com,Male,218.254.27.73
790,Petrina,De Caroli,pdecarolilx@ca.gov,Female,26.178.42.248
791,Dahlia,Elgy,delgyly@rambler.ru,Female,116.230.150.65
792,Ruben,Carletto,rcarlettolz@homestead.com,Male,222.163.109.226
793,Ruben,Laingmaid,rlaingmaidm0@parallels.com,Male,118.195.18.184
794,Cate,Lubeck,clubeckm1@webeden.co.uk,Female,8.106.208.160
795,Trent,Asif,tasifm2@nps.gov,Male,152.113.29.141
796,Ricki,Gask,rgaskm3@goo.gl,Male,36.161.223.207
797,Noble,MacMenemy,nmacmenemym4@si.edu,Male,101.31.219.68
798,Danyette,Kensall,dkensallm5@ft.com,Female,138.104.214.88
799,Benedikta,Amorts,bamortsm6@webmd.com,Female,48.201.241.179
800,Bink,Brickell,bbrickellm7@creativecommons.org,Male,72.131.160.243
801,Morten,Berggren,mberggrenm8@merriam-webster.com,Male,62.186.23.18
802,Hiram,Boylund,hboylundm9@foxnews.com,Male,95.124.108.243
803,Hilario,Blackster,hblacksterma@amazon.com,Male,252.94.97.178
804,Kendricks,Luparto,klupartomb@weather.com,Male,245.172.74.199
805,Garwood,Camerati,gcameratimc@wsj.com,Male,32.47.194.82
806,Joni,Brogden,jbrogdenmd@technorati.com,Female,193.78.174.183
807,Kessia,Jinda,kjindame@privacy.gov.au,Female,119.218.173.6
808,Alisun,Gaunter,agauntermf@fotki.com,Female,229.111.243.81
809,Vevay,Standrin,vstandrinmg@tinypic.com,Female,79.76.163.168
810,Ariel,Lawden,alawdenmh@earthlink.net,Male,122.84.91.174
811,Emlyn,Dubarry,edubarrymi@opensource.org,Male,247.75.252.113
812,Arri,Lamlin,alamlinmj@wsj.com,Male,43.4.65.24
813,Ashby,Fratson,afratsonmk@reference.com,Male,196.39.64.225
814,Beryle,Piddletown,bpiddletownml@cafepress.com,Female,69.62.237.202
815,Gwenny,Eddisforth,geddisforthmm@unc.edu,Female,231.7.220.90
816,Gwenore,Sarver,gsarvermn@washington.edu,Female,106.22.125.251
817,Mariel,Thorbon,mthorbonmo@microsoft.com,Female,171.200.165.210
818,Philly,Pinke,ppinkemp@ocn.ne.jp,Female,3.98.7.130
819,Trevor,Palethorpe,tpalethorpemq@youtube.com,Male,73.111.96.193
820,Jaquenetta,Pennycook,jpennycookmr@yale.edu,Female,244.148.173.249
821,Horace,Murison,hmurisonms@networksolutions.com,Male,186.106.173.249
822,Preston,Madsen,pmadsenmt@tiny.cc,Male,126.0.113.104
823,Herold,Ianni,hiannimu@jimdo.com,Male,218.112.144.12
824,Hussein,Molian,hmolianmv@wix.com,Male,108.42.99.178
825,Donnie,Docket,ddocketmw@a8.net,Female,172.247.210.188
826,Gertie,Adamovitch,gadamovitchmx@spiegel.de,Female,252.224.42.214
827,Duffy,Cayser,dcaysermy@disqus.com,Male,0.170.225.245
828,Faun,Nannoni,fnannonimz@eventbrite.com,Female,63.29.166.66
829,Tanner,Godart,tgodartn0@issuu.com,Male,92.143.134.19
830,Waylen,Holbarrow,wholbarrown1@va.gov,Male,3.96.168.37
831,Jocelyne,Jellyman,jjellymann2@printfriendly.com,Female,22.180.202.38
832,Hieronymus,Elgar,helgarn3@salon.com,Male,9.170.12.223
833,Hunfredo,Count,hcountn4@washington.edu,Male,60.152.45.205
834,Kerby,Fogel,kfogeln5@bandcamp.com,Male,185.85.58.235
835,Marchall,Milkin,mmilkinn6@usatoday.com,Male,31.89.240.20
836,Ferdinanda,Antrum,fantrumn7@elpais.com,Female,10.236.18.55
837,Pattie,Crewes,pcrewesn8@pagesperso-orange.fr,Male,246.135.211.119
838,Dara,Eady,deadyn9@latimes.com,Female,55.125.109.150
839,Sara,Di Biasi,sdibiasina@nationalgeographic.com,Female,6.238.95.228
840,Spenser,Riseborough,sriseboroughnb@sbwire.com,Male,214.157.217.157
841,Emily,Franchyonok,efranchyonoknc@51.la,Female,67.138.135.153
842,Alfie,Howlin,ahowlinnd@odnoklassniki.ru,Female,52.165.18.71
843,Karna,Eager,keagerne@auda.org.au,Female,204.233.196.19
844,Skylar,Assiratti,sassirattinf@columbia.edu,Male,131.166.128.206
845,Broderic,Darthe,bdartheng@last.fm,Male,65.55.21.117
846,Robinette,Roarty,rroartynh@nyu.edu,Female,240.54.252.252
847,Hedwiga,Maund,hmaundni@opensource.org,Female,132.220.82.155
848,Tades,Baynton,tbayntonnj@cbc.ca,Male,148.114.41.71
849,Cleon,Swannie,cswannienk@cbsnews.com,Male,220.120.181.140
850,Vere,Raden,vradennl@google.co.uk,Female,206.223.90.180
851,Hilde,Brydie,hbrydienm@ucoz.com,Female,70.90.7.68
852,Mischa,Almack,malmacknn@last.fm,Male,189.106.216.161
853,Drucill,Mellers,dmellersno@ibm.com,Female,19.91.131.169
854,Lezley,Truckett,ltruckettnp@cocolog-nifty.com,Male,125.64.249.2
855,Jeana,Bellino,jbellinonq@google.es,Female,114.56.150.41
856,Ginnifer,Marcinkowski,gmarcinkowskinr@mozilla.com,Female,62.158.160.114
857,Micah,Crathorne,mcrathornens@marriott.com,Male,248.28.17.52
858,Emiline,Weth,ewethnt@dyndns.org,Female,189.128.3.231
859,Klaus,Cristofor,kcristofornu@spiegel.de,Male,10.138.127.64
860,Neille,Revitt,nrevittnv@businessinsider.com,Female,34.185.238.130
861,Ximenes,Pickworth,xpickworthnw@jalbum.net,Male,53.132.183.233
862,Beck,Gooding,bgoodingnx@independent.co.uk,Male,246.205.135.84
863,Daisi,Wyss,dwyssny@ox.ac.uk,Female,178.213.162.33
864,Orv,Filippyev,ofilippyevnz@washington.edu,Male,65.149.113.192
865,Clem,Benjafield,cbenjafieldo0@slideshare.net,Female,198.216.204.8
866,Amelie,Minney,aminneyo1@google.de,Female,226.252.135.44
867,Marlane,Ferryn,mferryno2@usnews.com,Female,243.246.123.69
868,Sergio,Helling,shellingo3@msu.edu,Male,85.70.42.231
869,Branden,Covet,bcoveto4@deliciousdays.com,Male,188.220.226.222
870,Brent,Ollive,bolliveo5@bloglines.com,Male,133.156.239.29
871,Willdon,Kinahan,wkinahano6@imageshack.us,Male,25.219.30.232
872,Conrado,Fewkes,cfewkeso7@multiply.com,Male,113.73.78.52
873,Lindsey,Sweedy,lsweedyo8@cdbaby.com,Female,216.78.125.213
874,Joby,Benedek,jbenedeko9@qq.com,Female,250.77.106.240
875,Giff,Sarton,gsartonoa@storify.com,Male,53.224.144.252
876,Paolo,Hanes,phanesob@chronoengine.com,Male,11.92.249.175
877,Gibby,MacGettigen,gmacgettigenoc@vk.com,Male,149.14.165.66
878,Cherise,Clampett,cclampettod@bandcamp.com,Female,62.106.228.171
879,Davide,Irdale,dirdaleoe@oracle.com,Male,190.29.15.161
880,Evie,O'Dare,eodareof@state.tx.us,Female,20.222.17.176
881,Hildegarde,Yardley,hyardleyog@purevolume.com,Female,71.6.9.22
882,Kirsti,Plante,kplanteoh@globo.com,Female,129.234.3.202
883,Amble,Hundy,ahundyoi@woothemes.com,Male,50.162.163.161
884,Geraldine,Lemary,glemaryoj@washington.edu,Female,112.218.204.242
885,Bevvy,Joisce,bjoisceok@blogs.com,Female,98.212.75.165
886,Rochester,Roe,rroeol@baidu.com,Male,39.106.250.75
887,Neale,Osmond,nosmondom@digg.com,Male,47.219.140.66
888,Barton,Willson,bwillsonon@cloudflare.com,Male,116.109.130.217
889,Bert,Eyckelberg,beyckelbergoo@list-manage.com,Female,220.159.30.95
890,Klarika,Postins,kpostinsop@cbsnews.com,Female,181.145.174.89
891,Sara,Badman,sbadmanoq@hud.gov,Female,120.130.24.138
892,Janela,Naile,jnaileor@tinyurl.com,Female,160.85.118.80
893,Arni,Spurnier,aspurnieros@huffingtonpost.com,Male,107.215.55.197
894,Hyacintha,Anthoin,hanthoinot@hud.gov,Female,115.51.195.134
895,Riordan,Jacombs,rjacombsou@zimbio.com,Male,149.74.221.2
896,Libbie,Holdworth,lholdworthov@msu.edu,Female,190.252.177.167
897,Paloma,Tanti,ptantiow@symantec.com,Female,46.152.174.175
898,Garv,Senogles,gsenoglesox@barnesandnoble.com,Male,38.74.145.47
899,La verne,Ewin,lewinoy@amazon.co.uk,Female,173.211.227.165
900,Viviyan,Veldstra,vveldstraoz@123-reg.co.uk,Female,166.47.208.205
901,Ketti,Lickorish,klickorishp0@privacy.gov.au,Female,51.31.111.58
902,Ogden,Arundel,oarundelp1@google.it,Male,125.62.86.95
903,Lyndsay,Norcott,lnorcottp2@e-recht24.de,Female,29.179.138.196
904,Alwyn,Rablan,arablanp3@skype.com,Male,222.27.121.145
905,Gerhardt,Frensch,gfrenschp4@blogtalkradio.com,Male,161.224.59.74
906,Justin,Glendza,jglendzap5@pcworld.com,Male,140.97.219.65
907,Yankee,Vannoni,yvannonip6@google.com.au,Male,112.107.129.19
908,Felice,Dene,fdenep7@bloglines.com,Female,84.26.59.254
909,Dimitri,Sherebrook,dsherebrookp8@arizona.edu,Male,39.131.162.9
910,Melisa,Taunton.,mtauntonp9@nba.com,Female,92.13.221.122
911,George,Keepin,gkeepinpa@nbcnews.com,Female,159.198.70.169
912,Gene,Haville,ghavillepb@va.gov,Male,151.59.119.138
913,Reuben,Meugens,rmeugenspc@xrea.com,Male,239.244.214.95
914,Emilie,Boyett,eboyettpd@amazon.co.jp,Female,212.172.194.2
915,Nowell,Longrigg,nlongriggpe@odnoklassniki.ru,Male,200.13.154.33
916,Clemens,Gouinlock,cgouinlockpf@harvard.edu,Male,120.113.228.124
917,Helenelizabeth,Wrout,hwroutpg@walmart.com,Female,21.236.194.69
918,Wolfy,Hearon,whearonph@macromedia.com,Male,76.228.157.1
919,Bruis,Windross,bwindrosspi@cnbc.com,Male,44.170.225.159
920,Chaddie,Rambaut,crambautpj@sakura.ne.jp,Male,176.47.115.148
921,Sly,Larrad,slarradpk@dedecms.com,Male,144.134.168.46
922,Thaddus,Carles,tcarlespl@theguardian.com,Male,23.5.94.196
923,Catharina,Prestner,cprestnerpm@salon.com,Female,245.251.157.60
924,Guss,Reidshaw,greidshawpn@yolasite.com,Male,127.62.191.251
925,Nate,Wahner,nwahnerpo@howstuffworks.com,Male,134.215.118.192
926,Ken,Tearny,ktearnypp@adobe.com,Male,95.156.32.75
927,Anstice,Habbema,ahabbemapq@parallels.com,Female,228.69.250.24
928,Monique,Bronot,mbronotpr@addthis.com,Female,12.38.145.94
929,Tobe,McGeraghty,tmcgeraghtyps@example.com,Female,1.30.64.158
930,Gaylor,Lared,glaredpt@addthis.com,Male,197.238.224.47
931,Petronille,Bakster,pbaksterpu@salon.com,Female,185.199.103.187
932,Jeddy,Bage,jbagepv@nytimes.com,Male,59.36.150.117
933,Bayard,Wilber,bwilberpw@mail.ru,Male,72.150.88.89
934,Page,Ratchford,pratchfordpx@technorati.com,Female,11.252.6.98
935,Celeste,Cattanach,ccattanachpy@artisteer.com,Female,80.113.102.36
936,Adriano,Smalman,asmalmanpz@github.com,Male,245.36.20.72
937,Annmaria,Clabburn,aclabburnq0@dell.com,Female,82.49.174.36
938,Gabbi,Le Page,glepageq1@drupal.org,Female,43.229.113.176
939,Violante,Llewhellin,vllewhellinq2@chronoengine.com,Female,254.41.148.133
940,Torie,Alleyn,talleynq3@reuters.com,Female,196.55.23.94
941,Dorris,Sacco,dsaccoq4@illinois.edu,Female,203.202.20.231
942,Amabelle,Southernwood,asouthernwoodq5@dropbox.com,Female,120.59.116.70
943,Dorena,Gutman,dgutmanq6@hp.com,Female,99.233.246.53
944,Steffie,Damerell,sdamerellq7@webeden.co.uk,Female,84.254.242.185
945,Jerald,Lunck,jlunckq8@wsj.com,Male,225.189.245.40
946,Kelsey,Yaakov,kyaakovq9@ezinearticles.com,Female,220.100.230.192
947,Marguerite,Rudgard,mrudgardqa@google.cn,Female,39.112.131.227
948,Riobard,Sturman,rsturmanqb@wikispaces.com,Male,134.242.65.179
949,Myrvyn,Sewell,msewellqc@google.it,Male,192.38.2.103
950,Dulciana,Andrew,dandrewqd@sciencedaily.com,Female,30.146.152.121
951,Phyllys,Cockram,pcockramqe@nifty.com,Female,28.147.68.115
952,Remington,Lapthorn,rlapthornqf@miitbeian.gov.cn,Male,236.23.241.226
953,Rick,Shiliton,rshilitonqg@gov.uk,Male,192.94.242.160
954,Pinchas,Janous,pjanousqh@ftc.gov,Male,60.164.89.18
955,Germaine,Leamy,gleamyqi@cisco.com,Male,157.94.58.253
956,Katy,De Francisci,kdefrancisciqj@admin.ch,Female,114.238.185.218
957,Brittany,McKinstry,bmckinstryqk@unesco.org,Female,242.213.41.170
958,Gerty,Caslane,gcaslaneql@ihg.com,Female,49.191.167.98
959,Bobby,Houseman,bhousemanqm@g.co,Male,203.112.9.126
960,D'arcy,Norcop,dnorcopqn@marriott.com,Male,26.155.5.5
961,Nealy,Tanswell,ntanswellqo@sun.com,Male,66.14.162.116
962,Arney,Klaggeman,aklaggemanqp@ovh.net,Male,128.213.91.0
963,Dena,West-Frimley,dwestfrimleyqq@washington.edu,Female,134.103.189.170
964,Diann,Rapin,drapinqr@imageshack.us,Female,193.234.1.52
965,Garnet,Wickwar,gwickwarqs@netvibes.com,Female,106.245.120.16
966,Kevan,Coope,kcoopeqt@slashdot.org,Male,72.62.238.12
967,Charlean,Toderi,ctoderiqu@hc360.com,Female,51.46.167.130
968,Joela,Carmen,jcarmenqv@illinois.edu,Female,215.199.25.129
969,Bernie,Baert,bbaertqw@e-recht24.de,Male,247.59.76.239
970,Jarad,Juris,jjurisqx@mozilla.org,Male,67.195.157.160
971,Amble,Ebbs,aebbsqy@google.co.jp,Male,230.197.106.0
972,Martyn,Fishbourn,mfishbournqz@twitpic.com,Male,52.223.103.124
973,Kimble,Levecque,klevecquer0@mozilla.org,Male,147.192.72.207
974,Casar,Doni,cdonir1@storify.com,Male,159.46.181.155
975,Jammal,Bisset,jbissetr2@baidu.com,Male,139.194.57.227
976,Cad,Poznan,cpoznanr3@clickbank.net,Male,251.146.197.84
977,Crissie,Gairdner,cgairdnerr4@ovh.net,Female,156.174.252.94
978,Katherine,Vernalls,kvernallsr5@usgs.gov,Female,241.181.12.119
979,Lucille,Manton,lmantonr6@is.gd,Female,225.46.91.85
980,Eustacia,Gommes,egommesr7@pagesperso-orange.fr,Female,162.34.180.168
981,Garv,Downing,gdowningr8@nhs.uk,Male,146.232.230.80
982,Miof mela,Whitsun,mwhitsunr9@angelfire.com,Female,130.82.42.198
983,Neille,Mahomet,nmahometra@mayoclinic.com,Female,251.106.202.198
984,Brok,Corderoy,bcorderoyrb@patch.com,Male,180.63.119.57
985,Augie,Sandars,asandarsrc@abc.net.au,Male,73.235.51.123
986,Samuel,Curless,scurlessrd@i2i.jp,Male,14.219.14.244
987,Cara,Emanulsson,cemanulssonre@bluehost.com,Female,201.183.8.223
988,Llywellyn,Poppy,lpoppyrf@tamu.edu,Male,70.184.113.156
989,Vernen,Mucci,vmuccirg@google.com.au,Male,182.134.147.44
990,Andras,Remon,aremonrh@blogspot.com,Male,123.108.58.217
991,Selene,Ballefant,sballefantri@taobao.com,Female,125.49.71.191
992,Karyl,Duffer,kdufferrj@kickstarter.com,Female,91.74.200.67
993,Eilis,Brazelton,ebrazeltonrk@blog.com,Female,137.22.240.165
994,Ramsay,Cough,rcoughrl@so-net.ne.jp,Male,220.200.170.81
995,Onofredo,Granleese,ogranleeserm@phoca.cz,Male,252.171.192.26
996,Adan,Franek,afranekrn@chronoengine.com,Male,223.105.116.177
997,Wiley,Monsey,wmonseyro@unesco.org,Male,131.240.11.176
998,Jeanne,Wilgar,jwilgarrp@163.com,Female,250.14.69.197
999,Tadio,Vallis,tvallisrq@sina.com.cn,Male,24.62.221.76
1000,Fawne,Etchells,fetchellsrr@imdb.com,Female,180.61.244.74
